[
  {
    "id": 1,
    "question": "¿Se puede ser inversionista y acreditado a la vez?",
    "answer": "Sí, es posible. Sin embargo, no por ser inversionista te aprobaremos un préstamo. Si tu crédito está vencido de más de 30 días, no podrás retirar los rendimientos obtenidos hasta que regularices tu crédito.En caso de que tu préstamo se autorice, no podrás utilizar los recursos para prestarlos."
  },
  {
    "id": 2,
    "question": "¿Se puede registrar más de una cuenta?",
    "answer": "No, solamente es posible abrir una cuenta en nuestra plataforma."
  },
  {
    "id": 3,
    "question": "¿Cuánto puedo solicitar?",
    "answer": "Puedes solicitar préstamos desde $5,000 hasta $20,000."
  },
  {
    "id": 4,
    "question": "¿Para que propósitos puedo solicitar mi crédito?",
    "answer": "Nos enfocamos en préstamos personales lo cual incluye consolidación de deuda por tarjeta de crédito, remodelación de casa, gastos escolares, inversiones en tu negocio, etc. Todo préstamo debe tener un propósito legal."
  },
  {
    "id": 5,
    "question": "¿Se pueden solicitar 2 préstamos a la vez?",
    "answer": "No, puedes solicitar otro préstamo una vez que hayas pagado el anterior."
  },
  {
    "id": 6,
    "question": "¿Si mi préstamo no fue aprobado, puedo solicitar otro? ",
    "answer": "Para solicitar otro préstamo, deben pasar al menos 5 meses para tener derecho a solicitar otro.\n"
  },
  {
    "id": 7,
    "question": "El préstamo que me aprobaron no se fondeó. ¿Qué pasa en este caso?",
    "answer": "Si el préstamo se fondeó con al menos 5,000, te lo podemos transferir. Sí no se fondeó, lo volvemos a poner disponible para nuevo fondeo colectivo.\n"
  },
  {
    "id": 8,
    "question": "¿Qué pasa si no pago?",
    "answer": "En caso de no poder pagar por cualquier razón, te pedimos nos contactes a la brevedad posible para encontrar una solución. Si te das cuenta antes del vencimiento de tu préstamo, avísanos a la brevedad posible para poder encontrar una solución. Si no pagas y no nos informas, procederemos a reportar tu nombre al buró de crédito. Si te llegaras a atrasar más, un despacho de cobranza atenderá tu caso. Por lo tanto, es muy importante que nos informes a la brevedad en caso de que no puedas pagar."
  },
  {
    "id": 9,
    "question": "¿Cómo puedo realizar mis pagos?",
    "answer": "Puedes hacerlo mediante domiciliación, transferencia electrónica o depósito en banco BBVA Bancomer."
  },
  {
    "id": 10,
    "question": "¿Puedo pagar mi crédito de forma anticipada?",
    "answer": "Sí, puedes hacerlo, pero tiene que ser el monto total del préstamo. No puedes adelantar pagos por separado."
  },
  {
    "id": 11,
    "question": "¿Cuál es el monto mínimo a invertir?",
    "answer": "El mínimo a invertir en prestaKuali es de $300 pesos. Entre más inviertas, más puedes diversificar tu inversión."
  },
  {
    "id": 12,
    "question": "¿Cuánto puedo prestar?",
    "answer": "El límite para prestar es de 10 millones de pesos."
  },
  {
    "id": 13,
    "question": "¿Cuál va a ser mi rendimiento?",
    "answer": "Depende de tu perfil de riesgo y de los préstamos que fondees."
  },
  {
    "id": 14,
    "question": "¿Se puede saber a quien le prestaré?",
    "answer": "No podemos darte la identidad del acreditado, solamente te haremos saber sus hábitos de consumo, ingresos y egresos mensuales y su perfil de riesgo."
  },
  {
    "id": 15,
    "question": "¿Garantizan mi inversión?",
    "answer": "No podemos garantizarte ningún rendimiento ni el monto invertido. Como toda inversión, hay un riesgo al prestar dinero. Por tal motivo, puedes democratizar tu inversión prestando a varias personas al mismo tiempo, minimizando el riesgo."
  },
  {
    "id": 16,
    "question": "¿Cómo puedo retirar mis rendimientos?",
    "answer": "Una vez que los préstamos empiece a pagarse, se descontará una comisión del 1.5% a tu inversión y se dejará a tu disposición para hacer transferencia o bien reinvertir el rendimiento.  "
  }
]
